# http://proxy-ip-list.com/ provides you this fresh txt proxy list to free download proxy IP# Date: Tue, 05 May 2015 13:43:15 +0000106.185.52.123:80; 0; 0; anonymous proxy; Japan; 110.136.241.51:8080; 0; 0; anonymous proxy; Indonesia (Makassar); 61.16.234.236:80; 0; 0; anonymous; India (New Delhi); 37.17.162.10:80; 15.74; 223; anonymous; Hungary; 116.236.216.116:8080; 15.3; 9; anonymous; China (Shanghai); 39.167.28.58:8123; 0; 0; high-anonymous; China; 120.206.226.104:8123; 0; 0; high-anonymous; China; 177.105.212.18:80; 1.46; 1720; high-anonymous; Brazil; 200.103.97.218:80; 11.76; 299; high-anonymous; Brazil; 180.183.124.202:3128; 0; 0; anonymous proxy; Thailand (Nonthaburi); 112.19.128.4:8123; 0; 0; high-anonymous; China; 117.165.172.246:8123; 1.92; 819; high-anonymous; China; 39.167.111.239:8123; 0.93; 1023; high-anonymous; China; 200.124.201.121:8081; 0.9; 3779; anonymous proxy; Uruguay (Montevideo); 181.177.234.206:8080; 0; 0; anonymous; Peru (Lima); # http://proxy-ip-list.com/ provides you this fresh txt proxy list to free download proxy IP# Date: Tue, 05 May 2015 13:55:45 +000080.169.78.228:80; 0; 0; anonymous proxy; UK; 213.138.115.18:443; 0; 0; anonymous proxy; UK; 95.138.172.94:80; 0.46; 1485; anonymous proxy; UK; 46.20.120.69:80; 0; 0; anonymous; UK; 83.222.232.37:3228; 0.63; 1502; anonymous proxy; UK; 77.68.41.156:1680; 0; 0; anonymous proxy; UK (Gloucester); 194.73.58.251:8080; 0; 0; anonymous proxy; UK (Elstree); 95.138.142.212:9029; 0; 0; anonymous proxy; UK; 151.236.45.30:80; 0; 0; anonymous; UK; 86.53.165.101:8080; 0; 0; anonymous proxy; UK; 195.59.18.10:8080; 0; 0; anonymous; UK; # http://proxy-ip-list.com/ provides you this fresh txt proxy list to free download proxy IP# Date: Tue, 05 May 2015 13:47:47 +0000208.111.40.176:80; 0; 0; anonymous proxy; US (CA, West Hollywood); 198.99.224.134:80; 0; 0; anonymous; United States (TX, Dallas); 64.62.233.67:80; 0; 0; anonymous; US (CA, Fremont); 216.178.242.137:80; 0; 0; anonymous; USA (TX, Irving); 198.2.202.49:80; 0; 0; anonymous proxy; US (CA, San Jose); 198.2.202.58:80; 0; 0; anonymous proxy; United States (CA, San Jose); 152.44.157.187:8080; 0; 0; anonymous; United States (NC, Boiling Springs); 23.23.26.241:80; 0; 0; anonymous proxy; United States (VA, Ashburn); 162.210.110.194:3128; 0; 0; anonymous proxy; US (NV, Minden); # http://proxy-ip-list.com/ provides you this fresh txt proxy list to free download proxy IP# Date: Tue, 05 May 2015 13:17:18 +000037.187.101.28:3128; 0; 0; anonymous proxy; France; Proxy list updated at Tue, 05 May 15 15:55:01 +0300
IP address:Port Country-Anonymity(Noa/Anm/Hia)-SSL support(S)

119.28.3.200:83 CN-A 
202.138.226.146:1111 ID-N-S 
177.103.138.48:3130 BR-N 
110.138.39.147:8080 ID-N-S 
217.123.30.5:80 NL-A 
222.124.129.179:8080 ID-N-S 
223.83.38.159:8123 CN-H 
122.136.46.151:80 CN-N 
180.211.110.163:80 IN-H! 
218.204.154.167:8118 CN-A 
211.141.81.212:8118 CN-A 
190.248.135.134:8080 CO-N 
115.203.105.199:9797 CN-H 
118.97.189.34:8080 ID-N 
45.55.233.30:3128 US-A 
1.168.67.139:37564 TW-H 
145.116.19.100:80 NL-A 
222.124.210.26:8080 ID-N 
111.7.128.168:80 CN-A 
41.33.137.214:8080 EG-N-S 
168.235.154.199:3128 CA-N 
82.192.74.63:1234 NL-A-S 
190.192.23.153:8080 AR-N-S 
109.236.81.101:35190 NL-H! 
177.36.214.214:8080 BR-N-S 
120.193.146.93:81 CN-A 
201.251.156.17:8080 AR-N-S 
141.101.225.56:3128 RU-N-S 
41.211.106.168:8080 CM-H 
202.5.194.7:3128 MN-N-S 
101.255.51.138:8080 ID-N 
62.165.42.170:8080 RU-N-S 
204.27.58.202:8118 US-N 
117.135.252.3:80 CN-A 
64.235.44.70:3129 US-A 
104.131.95.72:3128 US-A 
198.98.52.169:8080 US-A 
23.239.134.48:3128 US-N-S 
54.194.84.82:3128 IE-A 
111.240.18.16:80 TW-A 
182.219.25.198:37564 KR-H-S 
190.57.142.54:8085 EC-N! 
210.31.15.35:80 CN-N! 
109.86.107.205:80 UA-H! 
175.211.51.195:37564 KR-H-S 
113.250.102.245:37564 CN-H-S 
46.101.142.202:3128 DE-A 
218.97.195.38:80 CN-A 
107.150.96.210:80 US-A 
54.191.128.38:3128 US-N 
110.4.12.171:80 HK-A 
221.5.69.51:8000 CN-N 
209.20.78.169:3128 US-N 
101.226.249.237:80 CN-A 
122.241.31.204:8118 CN-A 
41.72.105.38:3128 ZM-N 
45.56.127.162:8118 US-H-S 
186.5.199.5:3128 AR-N-S 
154.72.195.206:3128 UG-H 
182.74.224.66:8080 IN-N-S 
88.82.176.110:3128 RU-H-S! 
150.107.137.60:80 ID-N-S 
200.195.167.27:8080 BR-N-S 
115.200.189.21:37564 CN-A-S 
115.28.2.215:8088 CN-A 
189.39.97.220:3128 BR-N-S 
124.202.217.134:8118 CN-A! 
178.151.149.227:80 UA-N-S 
218.204.143.4:8118 CN-A 
177.101.2.49:8089 BR-N 
117.102.85.130:8080 ID-N 
123.125.104.242:80 CN-A! 
189.126.65.100:3128 BR-N-S 
211.141.82.246:8118 CN-A 
176.74.220.50:8888 CZ-N! 
200.10.67.162:8080 PE-N-S 
188.165.223.173:8106 FR-H-S! 
176.31.170.159:8080 FR-H-S 
61.152.102.40:8080 CN-N 
110.78.161.106:8080 TH-N 
43.249.218.90:8888 IN-A 
186.194.47.131:3128 BR-N-S 
177.184.137.234:8080 BR-N 
5.56.12.4:8080 IT-N! 
115.231.188.113:3128 CN-N 
222.124.177.162:8080 ID-N-S 
27.127.132.210:37564 JP-H-S 
78.186.43.180:80 TR-N-S 
117.184.207.138:80 CN-H! 
124.207.119.15:80 CN-N 
175.106.11.154:3128 ID-N-S 
80.240.248.225:3130 RU-N 
180.242.19.39:3128 ID-A 
193.107.37.163:80 BG-H 
200.91.36.179:8080 AR-A 
114.235.34.202:37564 CN-H-S 
222.183.123.154:8118 CN-A 
109.198.110.98:12345 RU-H 
109.224.52.74:80 IQ-N 
177.39.186.61:3128 BR-N 
200.124.201.121:3128 UY-A 
95.129.2.130:8080 LB-N-S! 
219.142.246.232:8118 CN-A 
212.83.145.136:8080 FR-H-S 
190.219.180.47:3128 PA-N 
46.201.249.54:3128 UA-H 
36.82.119.71:8080 ID-N 
118.97.30.178:3128 ID-N-S 
124.202.183.222:8118 CN-A! 
202.142.175.182:8080 PK-N-S! 
104.131.6.249:3128 US-A 
186.67.31.212:8080 CL-N 
200.43.65.91:8080 AR-A! 
183.218.63.168:8118 CN-A 
5.56.61.186:19350 ES-A-S 
58.252.72.179:3128 CN-A-S 
178.238.228.244:8080 DE-N-S 
118.193.166.141:80 CN-N 
203.130.205.169:3128 ID-N-S 
178.216.77.95:37564 RU-H-S 
52.10.213.146:3128 US-H-S 
175.139.215.184:8080 MY-N-S 
222.45.195.34:8118 CN-A 
217.65.221.202:8080 RU-N-S 
94.76.179.1:8080 ES-N-S 
218.204.140.104:8118 CN-A 
83.241.46.175:8080 LV-N-S 
118.102.176.162:3128 IN-H 
121.14.138.56:81 CN-A! 
186.101.82.74:3128 EC-N 
177.43.212.44:3128 BR-N! 
203.71.88.4:3128 TW-N! 
182.48.91.6:8080 BD-N 
202.138.248.64:8080 ID-N-S 
58.253.238.243:80 CN-N 
37.187.114.209:8080 FR-H-S 
115.124.75.149:80 ID-N 
219.83.84.66:8080 ID-N-S 
186.42.181.203:8080 EC-N-S 
60.194.67.230:8118 CN-A 
180.210.204.52:8080 SG-N! 
180.166.56.47:80 CN-H 
114.80.182.132:80 CN-A 
210.101.131.231:8080 KR-N-S 
221.10.102.203:843 CN-A 
188.129.255.226:3128 GE-N 
91.204.173.237:80 US-N-S 
117.43.249.82:8888 CN-H 
178.84.60.11:80 NL-A 
61.237.162.119:8118 CN-A 
118.97.191.234:80 ID-N-S 
212.72.133.174:80 GE-N-S 
103.8.192.103:8080 IN-N-S 
81.192.166.122:3128 MA-N-S! 
85.113.254.115:80 NL-A 
117.15.155.232:8118 CN-A 
80.98.162.102:8080 HU-N 
217.113.120.22:8080 RU-N-S 
124.6.135.170:3128 PH-A! 
61.19.30.198:8080 TH-N-S 
88.103.234.67:8081 CZ-N 
123.121.99.214:8118 CN-A 
211.151.129.142:8080 CN-A 
124.202.208.18:8118 CN-A! 
197.234.32.158:8080 NG-N-S 
195.158.2.209:80 UZ-H 
92.50.31.137:8080 IR-N! 
62.195.126.127:80 NL-A 
212.188.22.102:3128 RU-H-S 
85.25.116.186:80 DE-H 
200.217.64.220:8080 BR-N 
219.250.71.142:37564 KR-H-S 
202.179.189.212:8080 ID-N-S 
177.55.255.250:8080 BR-N! 
31.220.43.28:80 NL-H 
200.220.195.42:8080 BR-A 
113.104.196.201:9999 CN-A 
23.226.133.103:80 US-A 
182.72.45.83:80 IN-N 
177.107.97.246:8080 BR-N-S 
82.146.58.129:80 RU-H 
134.249.139.239:8080 UA-N-S 
202.137.25.53:3128 ID-N! 
141.101.242.27:3130 RU-A 
103.254.208.53:3128 HK-A 
89.218.93.59:3130 KZ-N-S 
91.217.42.2:8080 RU-N-S! 
62.149.12.138:3128 UA-H 
185.27.134.50:3128 GB-N 
197.148.70.30:8080 ZA-N-S! 
115.79.56.96:8080 VN-N! 
202.152.45.251:3128 ID-N-S! 
121.12.120.246:2008 CN-H 
120.193.146.93:83 CN-A 
181.113.25.235:8080 EC-A 
126.60.39.223:37564 JP-H-S 
177.184.135.154:8080 BR-N-S 
84.31.23.35:80 NL-A 
118.96.138.7:8080 ID-N-S 
118.97.148.204:8080 ID-N-S 
213.113.254.211:8085 SE-N-S 
117.121.17.104:8080 CN-N 
122.72.62.60:80 CN-N 
36.250.69.4:80 CN-N 
106.38.251.63:8088 CN-A 
125.30.16.135:37564 JP-H-S 
64.62.233.67:80 US-A 
37.200.99.210:8118 DE-H-S! 
120.197.234.166:80 CN-N 
85.172.55.113:3128 RU-N-S 
116.197.135.58:8080 ID-N-S 
188.40.147.101:2020 DE-N 
183.68.197.10:8118 CN-A 
201.62.86.9:3128 BR-N 
81.28.48.92:80 IR-A 
188.226.22.119:8080 RU-N-S 
77.175.158.57:80 NL-A 
163.177.79.5:80 CN-N! 
190.152.212.194:3128 EC-N-S 
182.229.35.50:37564 KR-H-S 
182.93.53.130:9999 MO-A 
190.248.153.162:8080 CO-N-S 
62.241.149.172:8080 EG-N! 
201.211.254.107:8080 VE-A 
139.228.123.12:8080 ID-N-S 
111.23.58.46:8118 CN-A 
122.89.12.23:8118 CN-A 
190.1.137.102:3128 CO-N-S 
202.107.233.85:8080 CN-A 
122.155.195.26:8080 TH-N 
123.121.95.61:8118 CN-A 
109.224.52.74:8080 IQ-N-S 
121.15.12.184:80 CN-A 
84.43.196.80:8080 BG-N-S 
41.160.33.148:8080 ZA-N-S 
192.227.139.28:8118 US-H 
124.202.182.22:8118 CN-A! 
195.158.102.73:8080 MT-N-S 
186.28.255.18:8080 CO-N 
201.30.59.34:3128 BR-N-S 
211.141.130.186:8118 CN-A 
124.202.182.214:8118 CN-A! 
86.104.127.203:2508 RO-H 
218.89.170.114:8888 CN-A 
41.162.73.148:8080 ZA-N-S 
121.129.141.203:37564 KR-H-S 
111.13.136.59:843 CN-A 
177.55.251.17:8080 BR-N 
52.11.224.8:80 US-H 
115.248.177.30:8080 IN-N-S! 
91.238.231.226:3128 RU-N 
91.217.42.3:8080 RU-N! 
222.181.184.138:37564 CN-A 
91.176.125.173:808 BE-H-S 
124.202.171.2:8118 CN-A! 
222.122.122.237:8081 KR-H-S 
94.181.34.64:80 RU-N 
59.38.85.209:9000 CN-A 
183.69.0.38:8118 CN-A 
185.10.242.230:8080 LY-N-S 
201.238.153.166:3128 EC-N-S 
111.251.109.123:37564 TW-H-S 
124.202.169.2:8001 CN-A! 
83.137.54.251:3128 RU-H 
202.106.16.36:3128 CN-N 
222.45.196.46:8118 CN-A 
177.184.198.1:8080 BR-N-S 
27.112.68.42:8080 ID-N-S 
194.228.104.186:3128 CZ-N 
212.3.183.210:8080 IT-A-S 
113.140.25.4:80 CN-H 
180.245.229.82:8080 ID-N 
110.153.9.250:80 CN-N 
118.26.150.161:8088 CN-A 
58.135.80.240:8088 CN-A 
124.202.179.150:8001 CN-A! 
64.251.30.39:80 US-H 
118.37.171.73:37564 KR-H-S 
60.13.74.199:80 CN-A 
218.97.194.198:81 CN-A 
80.90.116.124:8080 RU-A 
163.177.79.5:8101 CN-N 
180.151.194.94:8000 IN-H-S! 
79.190.238.162:80 PL-H 
122.228.92.103:3128 CN-N! 
94.139.204.185:8080 BG-N-S 
123.58.129.48:80 CN-H! 
163.177.79.4:80 CN-N 
37.187.152.232:80 FR-A 
111.40.196.68:80 CN-N 
176.31.239.33:8118 FR-H-S! 
58.96.150.82:80 AU-N-S 
188.64.17.1:8080 DE-H-S! 
2.237.76.230:3128 IT-N 
121.183.231.139:37564 KR-H-S 
191.0.70.78:3128 BR-A 
186.46.185.186:8080 EC-N-S 
83.234.174.1:3128 RU-N! 
185.23.129.226:8080 IR-N-S! 
117.158.98.214:80 CN-N 

Free HTTP/HTTPS(SSL) proxy list only. Text format. Updated hourly.